module gitlab.com/brentschroeter/beauregard

go 1.12

require (
	github.com/BurntSushi/toml v0.3.1
	github.com/cenkalti/backoff v2.1.1+incompatible // indirect
	github.com/dghubble/go-twitter v0.0.0-20190512073027-53f972dc4b06
	github.com/dghubble/oauth1 v0.5.0
	github.com/dghubble/sling v1.2.0 // indirect
	github.com/google/go-querystring v1.0.0 // indirect
)
